…
``` r
weather_nest %>% pull(data)
```

    ## <list_of<
    ##   tbl_df<
    ##     date: date
    ##     prcp: double
    ##     tmax: double
    ##     tmin: double
    ##   >
    ## >[3]>
    ## [[1]]
    ## # A tibble: 366 x 4
    ##    date        prcp  tmax  tmin
    ##    <date>     <dbl> <dbl> <dbl>
    ##  1 2016-01-01     0   5.6   1.1
    ##  2 2016-01-02     0   4.4   0  
    ##  3 2016-01-03     0   7.2   1.7
    ##  4 2016-01-04     0   2.2  -9.9
    ##  5 2016-01-05     0  -1.6 -11.6
    ##  6 2016-01-06     0   5    -3.8
    ##  7 2016-01-07     0   7.8  -0.5
    ##  8 2016-01-08     0   7.8  -0.5
    ##  9 2016-01-09     0   8.3   4.4
    ## 10 2016-01-10   457  15     4.4
    ## # … with 356 more rows
    ## 
    ## [[2]]
    ## # A tibble: 366 x 4
    ##    date        prcp  tmax  tmin
    ##    <date>     <dbl> <dbl> <dbl>
    ##  1 2016-01-01     0  29.4  16.7
    ##  2 2016-01-02     0  28.3  16.7
    ##  3 2016-01-03     0  28.3  16.7
    ##  4 2016-01-04     0  28.3  16.1
    ##  5 2016-01-05     0  27.2  16.7
    ##  6 2016-01-06     0  27.2  20  
    ##  7 2016-01-07    46  27.8  18.3
    ##  8 2016-01-08     3  28.3  17.8
    ##  9 2016-01-09     8  27.8  19.4
    ## 10 2016-01-10     3  28.3  18.3
    ## # … with 356 more rows
    ## 
    ## [[3]]
    ## # A tibble: 366 x 4
    ##    date        prcp  tmax  tmin
    ##    <date>     <dbl> <dbl> <dbl>
    ##  1 2016-01-01     0   1.7  -5.9
    ##  2 2016-01-02    25  -0.1  -6  
    ##  3 2016-01-03     0  -5   -10  
    ##  4 2016-01-04    25   0.3  -9.8
    ##  5 2016-01-05    25   1.9  -1.8
    ##  6 2016-01-06    25   1.4  -2.6
    ##  7 2016-01-07     0   1.4  -3.9
    ##  8 2016-01-08     0   1.1  -4  
    ##  9 2016-01-09     0   1.4  -4.5
    ## 10 2016-01-10     0   2.3  -3.8
    ## # … with 356 more rows

``` r
weather_nest$data[[1]]
```

    ## # A tibble: 366 x 4
    ##    date        prcp  tmax  tmin
    ##    <date>     <dbl> <dbl> <dbl>
    ##  1 2016-01-01     0   5.6   1.1
    ##  2 2016-01-02     0   4.4   0  
    ##  3 2016-01-03     0   7.2   1.7
    ##  4 2016-01-04     0   2.2  -9.9
    ##  5 2016-01-05     0  -1.6 -11.6
    ##  6 2016-01-06     0   5    -3.8
    ##  7 2016-01-07     0   7.8  -0.5
    ##  8 2016-01-08     0   7.8  -0.5
    ##  9 2016-01-09     0   8.3   4.4
    ## 10 2016-01-10   457  15     4.4
    ## # … with 356 more rows

``` r
weather_nest %>% 
  unnest()
```

    ## Warning: `cols` is now required.
    ## Please use `cols = c(data)`

    ## # A tibble: 1,098 x 6
    ##    name           id          date        prcp  tmax  tmin
    ##    <chr>          <chr>       <date>     <dbl> <dbl> <dbl>
    ##  1 CentralPark_NY USW00094728 2016-01-01     0   5.6   1.1
    ##  2 CentralPark_NY USW00094728 2016-01-02     0   4.4   0  
    ##  3 CentralPark_NY USW00094728 2016-01-03     0   7.2   1.7
    ##  4 CentralPark_NY USW00094728 2016-01-04     0   2.2  -9.9
    ##  5 CentralPark_NY USW00094728 2016-01-05     0  -1.6 -11.6
    ##  6 CentralPark_NY USW00094728 2016-01-06     0   5    -3.8
    ##  7 CentralPark_NY USW00094728 2016-01-07     0   7.8  -0.5
    ##  8 CentralPark_NY USW00094728 2016-01-08     0   7.8  -0.5
    ##  9 CentralPark_NY USW00094728 2016-01-09     0   8.3   4.4
    ## 10 CentralPark_NY USW00094728 2016-01-10   457  15     4.4
    ## # … with 1,088 more rows
…
napaleon
```

    ## # A tibble: 50 x 4
    ##     page title                            stars text                       
    ##    <int> <chr>                            <dbl> <chr>                      
    ##  1     1 "Gotta watch it!\n            "      5 Format: Prime VideoVerifie…
    ##  2     1 "Great movie\n            "          5 Format: Blu-rayVerified Pu…
    ##  3     1 "Duh\n            "                  5 Format: Prime VideoVerifie…
    ##  4     1 "Great video\n            "          5 Format: DVDVerified Purcha…
    ##  5     1 "Give me some of your tots\n   …     5 Format: Prime VideoVerifie…
    ##  6     1 "Nostalgic\n            "            5 Format: Prime VideoVerifie…
    ##  7     1 "Make you giggle type movie\n  …     5 Format: Blu-rayVerified Pu…
    ##  8     1 "This movie is so stupid.\n    …     5 Format: Prime VideoVerifie…
    ##  9     1 "Hilarious\n            "            5 Format: Prime VideoVerifie…
    ## 10     1 "Waste of money\n            "       1 Format: Prime VideoVerifie…
    ## # … with 40 more rows
…
