…
output = vector("list",length = 4)

for (i in 1:4) {
  output[[i]] = rerun(100, sim_regression(n_list[[i]])) %>% 
    bind_rows
}

output
```

    ## [[1]]
    ## # A tibble: 100 x 2
    ##    beta0_hat beta1_hat
    ##        <dbl>     <dbl>
    ##  1      1.64      3.15
    ##  2      2.01      3.03
    ##  3      2.00      2.92
    ##  4      2.43      2.50
    ##  5      1.92      3.02
    ##  6      2.26      2.82
    ##  7      2.18      2.86
    ##  8      2.14      2.95
    ##  9      2.05      3.07
    ## 10      2.04      2.71
    ## # … with 90 more rows
    ## 
    ## [[2]]
    ## # A tibble: 100 x 2
    ##    beta0_hat beta1_hat
    ##        <dbl>     <dbl>
    ##  1      2.37      2.86
    ##  2      2.10      2.77
    ##  3      1.79      2.98
    ##  4      2.20      2.98
    ##  5      1.94      3.07
    ##  6      1.81      3.11
    ##  7      2.00      3.00
    ##  8      2.34      2.71
    ##  9      2.09      2.85
    ## 10      1.79      3.24
    ## # … with 90 more rows
    ## 
    ## [[3]]
    ## # A tibble: 100 x 2
    ##    beta0_hat beta1_hat
    ##        <dbl>     <dbl>
    ##  1      1.79      3.08
    ##  2      1.80      3.15
    ##  3      1.85      3.11
    ##  4      2.00      2.96
    ##  5      1.90      3.11
    ##  6      1.93      2.99
    ##  7      2.23      2.88
    ##  8      2.11      2.99
    ##  9      1.95      2.96
    ## 10      1.90      3.03
    ## # … with 90 more rows
    ## 
    ## [[4]]
    ## # A tibble: 100 x 2
    ##    beta0_hat beta1_hat
    ##        <dbl>     <dbl>
    ##  1      2.06      2.97
    ##  2      2.02      3.03
    ##  3      1.95      3.11
    ##  4      1.87      3.03
    ##  5      1.94      2.98
    ##  6      1.98      2.98
    ##  7      2.09      3.00
    ##  8      1.95      3.02
    ##  9      2.03      3.07
    ## 10      1.95      3.03
    ## # … with 90 more rows

``` r
sim_results = 
  tibble(n = c(30, 60, 120, 240)) %>% 
  mutate(
    output_list = map(.x = n, ~rerun(10,sim_regression(n = .x)))
  ) %>% 
  unnest

sim_results
```

    ## # A tibble: 40 x 2
    ##        n output_list     
    ##    <dbl> <list>          
    ##  1    30 <tibble [1 × 2]>
    ##  2    30 <tibble [1 × 2]>
    ##  3    30 <tibble [1 × 2]>
    ##  4    30 <tibble [1 × 2]>
    ##  5    30 <tibble [1 × 2]>
    ##  6    30 <tibble [1 × 2]>
    ##  7    30 <tibble [1 × 2]>
    ##  8    30 <tibble [1 × 2]>
    ##  9    30 <tibble [1 × 2]>
    ## 10    30 <tibble [1 × 2]>
    ## # … with 30 more rows
…
